/* XPM */
static char * menu_inactive_xpm[] = {
"24 16 2 1",
" 	c None",
<<<<<<< HEAD
".	c #1e1e1e",
=======
".	c #444444",
>>>>>>> 20c317abd13ec1b1bd1eef62707456f4e76b1f5d
"........................",
"........................",
"........................",
"........................",
"........................",
"........................",
"........................",
"........................",
"........................",
"........................",
"........................",
"........................",
"........................",
"........................",
"........................",
"........................"};
