/* XPM */
static char * title_5_inactive_xpm[] = {
"2 26 3 1",
" 	c None",
<<<<<<< HEAD
".	c #ffffff",
"+	c #000000",
=======
".	c #393939",
"+	c #444444",
>>>>>>> 20c317abd13ec1b1bd1eef62707456f4e76b1f5d
"..",
"++",
"++",
"++",
"++",
"++",
"++",
"++",
"++",
"++",
"++",
"++",
"++",
"++",
"++",
"++",
"++",
"++",
"++",
"++",
"++",
"++",
"++",
"++",
"++",
"++"};
