/* XPM */
static char * top_left_active_xpm[] = {
"2 26 4 1",
" 	c None",
<<<<<<< HEAD
".	c #ffffff",
"+	c #ffffff",
"@	c #000000",
=======
".	c #484848",
"+	c #343434",
"@	c #444444",
>>>>>>> 20c317abd13ec1b1bd1eef62707456f4e76b1f5d
" .",
".+",
".@",
".@",
".@",
".@",
".@",
".@",
".@",
".@",
".@",
".@",
".@",
".@",
".@",
".@",
".@",
".@",
".@",
".@",
".@",
".@",
".@",
".@",
".@",
".@"};
